2019-09-14 18:54:58,0
2019-09-14 18:55:55,0
2019-09-14 18:56:55,0
2019-09-14 18:57:55,0
2019-09-14 18:58:55,0
2019-09-14 18:59:28,0
2019-09-14 19:00:28,0
2019-09-14 19:01:28,0
2019-09-14 19:02:28,0
2019-09-14 19:03:28,0
2019-09-14 19:04:28,0
2019-09-14 19:05:28,0
2019-09-14 19:06:28,0
2019-09-14 19:07:28,0
2019-09-14 19:08:28,0
2019-09-14 19:09:28,0
2019-09-14 19:10:28,0
2019-09-14 19:11:28,0
2019-09-14 19:12:28,0
2019-09-14 19:13:36;0
2019-09-14 19:14:41;0
2019-09-14 19:21:44,0
